Examine search term frequencies
…
Show me the code

abstr_idf <- abstr_words %>%
  mutate(n_titles = n_distinct(doc_id)) %>%
  group_by(word) %>%
  summarize(idf = -log(n_distinct(doc_id) / first(n_titles)))

abstr_tf_idf <- abstr_words %>%
  left_join(abstr_idf, by = c('word')) %>%
  mutate(tf_idf = term_freq * idf) %>%
  arrange(desc(tf_idf))
  
head(abstr_tf_idf, 50)

# A tibble: 50 × 6
   doc_id word            n term_freq   idf tf_idf
    <int> <chr>       <int>     <dbl> <dbl>  <dbl>
 1   4271 ptsc           19    0.0742  9.52  0.706
 2   2696 airnow          4    0.0702  9.52  0.668
 3   6343 smfi           22    0.0675  9.52  0.642
 4   5276 underground    12    0.0968  5.73  0.555
 5    621 meat           14    0.0765  7.03  0.538
 6  11015 ginseng        12    0.0553  9.52  0.526
 7   1973 epc            14    0.0619  8.42  0.521
 8   8920 chilling       17    0.0607  8.13  0.494
 9   4452 telework        8    0.0559  8.82  0.494
10  11874 upgs           16    0.0514  9.52  0.490
# ℹ 40 more rows
